<?xml version="1.0" encoding="UTF-8" standalone="no"?>
<svg
   xmlns:dc="http://purl.org/dc/elements/1.1/"
   xmlns:cc="http://creativecommons.org/ns#"
   xmlns:rdf="http://www.w3.org/1999/02/22-rdf-syntax-ns#"
   xmlns:svg="http://www.w3.org/2000/svg"
   xmlns="http://www.w3.org/2000/svg"
   xmlns:sodipodi="http://sodipodi.sourceforge.net/DTD/sodipodi-0.dtd"
   xmlns:inkscape="http://www.inkscape.org/namespaces/inkscape"
   inkscape:version="1.0 (4035a4fb49, 2020-05-01)"
   sodipodi:docname="prisco_bot_blackwhite_banner.svg"
   width="1500"
   height="500"
   viewBox="0 0 396.875 132.29167"
   version="1.1"
   id="svg8"
   inkscape:export-filename="/home/drbluefall/Prismarine Co. Icons/prisco_bot_blackwhite_banner.png"
   inkscape:export-xdpi="47.700001"
   inkscape:export-ydpi="47.700001">
  <defs
     id="defs2">
    <marker
       inkscape:stockid="DotL"
       orient="auto"
       refY="0.0"
       refX="0.0"
       id="DotL"
       style="overflow:visible"
       inkscape:isstock="true">
      <path
         id="path994"
         d="M -2.5,-1.0 C -2.5,1.7600000 -4.7400000,4.0 -7.5,4.0 C -10.260000,4.0 -12.5,1.7600000 -12.5,-1.0 C -12.5,-3.7600000 -10.260000,-6.0 -7.5,-6.0 C -4.7400000,-6.0 -2.5,-3.7600000 -2.5,-1.0 z "
         style="fill-rule:evenodd;stroke:#000000;stroke-width:1.0pt"
         transform="scale(0.8) translate(7.4, 1)" />
    </marker>
    <marker
       inkscape:isstock="true"
       style="overflow:visible"
       id="marker2707"
       refX="0"
       refY="0"
       orient="auto"
       inkscape:stockid="TriangleInL">
      <path
         transform="scale(-0.8)"
         style="fill:#ffffff;fill-opacity:1;fill-rule:evenodd;stroke:#ffffff;stroke-width:1pt;stroke-opacity:1"
         d="M 5.77,0 -2.88,5 V -5 Z"
         id="path2705" />
    </marker>
    <marker
       inkscape:isstock="true"
       style="overflow:visible"
       id="marker2643"
       refX="0"
       refY="0"
       orient="auto"
       inkscape:stockid="TriangleInL">
      <path
         transform="scale(-0.8)"
         style="fill:#ffffff;fill-opacity:1;fill-rule:evenodd;stroke:#ffffff;stroke-width:1pt;stroke-opacity:1"
         d="M 5.77,0 -2.88,5 V -5 Z"
         id="path2135" />
    </marker>
    <marker
       inkscape:isstock="true"
       style="overflow:visible"
       id="Arrow2Lstart"
       refX="0"
       refY="0"
       orient="auto"
       inkscape:stockid="Arrow2Lstart">
      <path
         transform="matrix(1.1,0,0,1.1,1.1,0)"
         d="M 8.7185878,4.0337352 -2.2072895,0.01601326 8.7185884,-4.0017078 c -1.7454984,2.3720609 -1.7354408,5.6174519 -6e-7,8.035443 z"
         style="fill:#ffffff;fill-opacity:1;fill-rule:evenodd;stroke:#ffffff;stroke-width:0.625;stroke-linejoin:round;stroke-opacity:1"
         id="path2020" />
    </marker>
    <marker
       inkscape:isstock="true"
       style="overflow:visible"
       id="TriangleOutL"
       refX="0"
       refY="0"
       orient="auto"
       inkscape:stockid="TriangleOutL">
      <path
         transform="scale(0.8)"
         style="fill:#ffffff;fill-opacity:1;fill-rule:evenodd;stroke:#ffffff;stroke-width:1pt;stroke-opacity:1"
         d="M 5.77,0 -2.88,5 V -5 Z"
         id="path2144" />
    </marker>
    <marker
       inkscape:isstock="true"
       style="overflow:visible"
       id="Arrow1Lstart"
       refX="0"
       refY="0"
       orient="auto"
       inkscape:stockid="Arrow1Lstart">
      <path
         transform="matrix(0.8,0,0,0.8,10,0)"
         style="fill:#ffffff;fill-opacity:1;fill-rule:evenodd;stroke:#ffffff;stroke-width:1pt;stroke-opacity:1"
         d="M 0,0 5,-5 -12.5,0 5,5 Z"
         id="path2002" />
    </marker>
    <marker
       inkscape:isstock="true"
       style="overflow:visible"
       id="Arrow1Lend"
       refX="0"
       refY="0"
       orient="auto"
       inkscape:stockid="Arrow1Lend">
      <path
         transform="matrix(-0.8,0,0,-0.8,-10,0)"
         style="fill:#ffffff;fill-opacity:1;fill-rule:evenodd;stroke:#ffffff;stroke-width:1pt;stroke-opacity:1"
         d="M 0,0 5,-5 -12.5,0 5,5 Z"
         id="path2005" />
    </marker>
    <marker
       inkscape:isstock="true"
       style="overflow:visible"
       id="Arrow2Lend"
       refX="0"
       refY="0"
       orient="auto"
       inkscape:stockid="Arrow2Lend">
      <path
         transform="matrix(-1.1,0,0,-1.1,-1.1,0)"
         d="M 8.7185878,4.0337352 -2.2072895,0.01601326 8.7185884,-4.0017078 c -1.7454984,2.3720609 -1.7354408,5.6174519 -6e-7,8.035443 z"
         style="fill:#ffffff;fill-opacity:1;fill-rule:evenodd;stroke:#ffffff;stroke-width:0.625;stroke-linejoin:round;stroke-opacity:1"
         id="path2023" />
    </marker>
    <marker
       inkscape:stockid="TriangleInL"
       orient="auto"
       refY="0"
       refX="0"
       id="TriangleInL"
       style="overflow:visible"
       inkscape:isstock="true">
      <path
         id="path4653"
         d="M 5.77,0 -2.88,5 V -5 Z"
         style="fill:#ffffff;fill-opacity:1;fill-rule:evenodd;stroke:#ffffff;stroke-width:1pt;stroke-opacity:1"
         transform="scale(-0.8)" />
    </marker>
  </defs>
  <sodipodi:namedview
     id="base"
     pagecolor="#ffffff"
     bordercolor="#666666"
     borderopacity="1.0"
     inkscape:pageopacity="1"
     inkscape:pageshadow="2"
     inkscape:zoom="0.52266667"
     inkscape:cx="775.82913"
     inkscape:cy="278.71037"
     inkscape:document-units="mm"
     inkscape:current-layer="layer5"
     showgrid="false"
     units="px"
     inkscape:window-width="1366"
     inkscape:window-height="730"
     inkscape:window-x="0"
     inkscape:window-y="18"
     inkscape:window-maximized="1"
     inkscape:snap-global="false"
     inkscape:pagecheckerboard="true"
     inkscape:document-rotation="0" />
  <metadata
     id="metadata5">
    <rdf:RDF>
      <cc:Work
         rdf:about="">
        <dc:format>image/svg+xml</dc:format>
        <dc:type
           rdf:resource="http://purl.org/dc/dcmitype/StillImage" />
        <dc:title />
      </cc:Work>
    </rdf:RDF>
  </metadata>
  <g
     sodipodi:insensitive="true"
     style="display:inline;opacity:0.998"
     inkscape:groupmode="layer"
     id="layer3"
     inkscape:label="bg">
    <rect
       inkscape:export-ydpi="48"
       inkscape:export-xdpi="48"
       style="opacity:0.998;fill:#000000;fill-opacity:1;stroke:none;stroke-width:2.06897;stroke-linecap:butt;stroke-linejoin:miter;stroke-miterlimit:13.4;stroke-dasharray:none;stroke-dashoffset:0;stroke-opacity:1;paint-order:fill markers stroke"
       id="rect837"
       width="396.875"
       height="132.29167"
       x="0"
       y="-2.5431316e-06" />
  </g>
  <g
     sodipodi:insensitive="true"
     inkscape:label="center-circle"
     inkscape:groupmode="layer"
     id="layer1"
     transform="translate(0,-26.06665)"
     style="display:inline">
    <path
       transform="matrix(0.5110275,0.00892002,-0.00892002,0.5110275,-1.64048,8.4561457)"
       d="M 183.04065,240.64511 90.74085,242.28949 43.166876,163.1777 87.892701,82.421544 180.1925,80.777165 227.76647,159.88895 Z"
       inkscape:randomized="0"
       inkscape:rounded="0"
       inkscape:flatsided="true"
       sodipodi:arg2="1.5529826"
       sodipodi:arg1="1.0293838"
       sodipodi:r2="79.946655"
       sodipodi:r1="92.314445"
       sodipodi:cy="161.53333"
       sodipodi:cx="135.46667"
       sodipodi:sides="6"
       id="path4811"
       style="opacity:1;fill:#ffffff;fill-opacity:0;stroke:#fffff6;stroke-width:17.9652;stroke-linecap:butt;stroke-linejoin:miter;stroke-miterlimit:13.4;stroke-dasharray:none;stroke-dashoffset:179.652;stroke-opacity:1;paint-order:fill markers stroke"
       sodipodi:type="star" />
  </g>
  <g
     sodipodi:insensitive="true"
     inkscape:groupmode="layer"
     id="layer2"
     inkscape:label="limiters"
     style="display:inline">
    <rect
       transform="matrix(0.54491004,0.83849451,-0.89889031,0.43817372,0,0)"
       y="9.3305016"
       x="56.464054"
       height="5.7703452"
       width="14.3832"
       id="rect5341"
       style="opacity:1;fill:#000000;fill-opacity:1;stroke:#000000;stroke-width:1.48983;stroke-linecap:butt;stroke-linejoin:miter;stroke-miterlimit:13.4;stroke-dasharray:none;stroke-dashoffset:0;stroke-opacity:1;paint-order:fill markers stroke" />
    <rect
       style="opacity:1;fill:#000000;fill-opacity:1;stroke:#000000;stroke-width:1.54248;stroke-linecap:butt;stroke-linejoin:miter;stroke-miterlimit:13.4;stroke-dasharray:none;stroke-dashoffset:0;stroke-opacity:1;paint-order:fill markers stroke"
       id="rect5345"
       width="14.347506"
       height="6.2007613"
       x="-86.818855"
       y="-39.631386"
       transform="matrix(-0.99998907,0.00467537,-0.38212755,-0.92410959,0,0)" />
    <rect
       transform="matrix(0.49584135,-0.86841312,0.99138188,0.13100368,0,0)"
       y="129.59683"
       x="-110.26936"
       height="6.2007613"
       width="14.347506"
       id="rect5347"
       style="opacity:1;fill:#000000;fill-opacity:1;stroke:#000000;stroke-width:1.54248;stroke-linecap:butt;stroke-linejoin:miter;stroke-miterlimit:13.4;stroke-dasharray:none;stroke-dashoffset:0;stroke-opacity:1;paint-order:fill markers stroke" />
  </g>
  <g
     sodipodi:insensitive="true"
     style="display:inline;opacity:0.996;mix-blend-mode:normal"
     inkscape:label="gear"
     id="layer4"
     inkscape:groupmode="layer">
    <path
       id="path2382"
       d="m 53.14731,59.078506 c 30.09758,31.63269 30.09758,31.63269 30.09758,31.63269"
       style="fill:none;fill-opacity:1;stroke:#ffffff;stroke-width:11.5865;stroke-linecap:butt;stroke-linejoin:miter;stroke-miterlimit:4;stroke-dasharray:none;stroke-opacity:1;paint-order:normal" />
    <path
       transform="matrix(0.16960423,-0.1593968,0.17564119,0.21131694,35.37709,47.336366)"
       inkscape:transform-center-y="-4.4252686"
       inkscape:transform-center-x="-0.33455053"
       inkscape:randomized="0"
       inkscape:rounded="0"
       inkscape:flatsided="true"
       sodipodi:arg2="3.6416592"
       sodipodi:arg1="2.5944616"
       sodipodi:r2="15.185433"
       sodipodi:r1="30.370867"
       sodipodi:cy="55.029667"
       sodipodi:cx="25.676813"
       sodipodi:sides="3"
       id="path2763"
       style="opacity:0.998;fill:#ffffff;fill-opacity:1;stroke:#ffffff;stroke-width:20.165;stroke-miterlimit:4;stroke-dasharray:none;stroke-opacity:1;paint-order:normal"
       sodipodi:type="star"
       d="M -0.26053193,70.829783 24.962183,24.667209 52.328788,69.592008 Z" />
    <rect
       transform="matrix(0.67809234,-0.73497672,0.69079109,0.7230544,0,0)"
       y="109.55698"
       x="-5.9165649"
       height="13.396748"
       width="2.1892262"
       id="rect2765"
       style="opacity:0.998;fill:#000000;fill-opacity:1;stroke:#000000;stroke-width:0;stroke-miterlimit:4;stroke-dasharray:none;stroke-opacity:1;paint-order:normal" />
    <rect
       transform="matrix(0.67647644,-0.73646428,0.68919772,0.72457333,0,0)"
       style="opacity:0.998;fill:#000000;fill-opacity:1;stroke:#000000;stroke-width:0;stroke-miterlimit:4;stroke-dasharray:none;stroke-opacity:1;paint-order:normal"
       id="rect2767"
       width="2.376425"
       height="14.551007"
       x="-1.1012919"
       y="109.7045" />
    <path
       style="fill:none;fill-opacity:1;stroke:#ffffff;stroke-width:11.5865;stroke-linecap:butt;stroke-linejoin:miter;stroke-miterlimit:4;stroke-dasharray:none;stroke-opacity:1;paint-order:normal"
       d="m 79.29364,58.975266 c -29.6983,32.05798 -29.6983,32.05798 -29.6983,32.05798"
       id="path2791" />
    <path
       sodipodi:type="star"
       style="opacity:0.998;fill:#ffffff;fill-opacity:1;stroke:#ffffff;stroke-width:20.165;stroke-miterlimit:4;stroke-dasharray:none;stroke-opacity:1;paint-order:normal"
       id="path2793"
       sodipodi:sides="3"
       sodipodi:cx="25.676813"
       sodipodi:cy="55.029667"
       sodipodi:r1="30.370867"
       sodipodi:r2="15.185433"
       sodipodi:arg1="2.5944616"
       sodipodi:arg2="3.6416592"
       inkscape:flatsided="true"
       inkscape:rounded="0"
       inkscape:randomized="0"
       inkscape:transform-center-x="0.42567774"
       inkscape:transform-center-y="-4.4243587"
       transform="matrix(0.16385311,0.16608463,-0.18225023,0.20486596,88.58347,39.072026)"
       d="M -0.26053193,70.829783 24.962183,24.667209 52.328788,69.592008 Z" />
    <rect
       transform="matrix(0.71419391,0.6999479,-0.68933238,0.72444521,0,0)"
       style="opacity:0.998;fill:#000000;fill-opacity:1;stroke:#000000;stroke-width:0;stroke-miterlimit:4;stroke-dasharray:none;stroke-opacity:1;paint-order:normal"
       id="rect2795"
       width="2.3318543"
       height="14.28893"
       x="95.116119"
       y="16.957695" />
    <rect
       transform="matrix(0.69079109,0.7230544,-0.67809234,0.73497672,0,0)"
       y="13.67395"
       x="99.559113"
       height="13.420554"
       width="2.1868198"
       id="rect2797"
       style="opacity:0.998;fill:#000000;fill-opacity:1;stroke:#000000;stroke-width:0;stroke-miterlimit:4;stroke-dasharray:none;stroke-opacity:1;paint-order:normal" />
  </g>
  <g
     inkscape:label="text"
     id="layer5"
     inkscape:groupmode="layer">
    <text
       id="text1673"
       y="47.184143"
       x="126.55696"
       style="font-style:normal;font-variant:normal;font-weight:normal;font-stretch:normal;font-size:26.7109px;line-height:1.25;font-family:mononoki;-inkscape-font-specification:mononoki;letter-spacing:0px;word-spacing:0px;display:inline;opacity:0.998;fill:#ffffff;fill-opacity:1;stroke:none;stroke-width:0.333885"
       xml:space="preserve"><tspan
         style="font-style:normal;font-variant:normal;font-weight:normal;font-stretch:normal;font-size:26.7109px;font-family:mononoki;-inkscape-font-specification:mononoki;fill:#ffffff;stroke-width:0.333885"
         y="47.184143"
         x="126.55696"
         id="tspan1671"
         sodipodi:role="line">Project</tspan><tspan
         id="tspan1675"
         style="font-style:normal;font-variant:normal;font-weight:normal;font-stretch:normal;font-size:26.7109px;font-family:mononoki;-inkscape-font-specification:mononoki;fill:#ffffff;stroke-width:0.333885"
         y="80.572769"
         x="126.55696"
         sodipodi:role="line">Prismarine</tspan></text>
    <text
       id="text1685"
       y="91.777534"
       x="129.03984"
       style="font-style:normal;font-variant:normal;font-weight:normal;font-stretch:normal;font-size:8.77526px;line-height:1.25;font-family:mononoki;-inkscape-font-specification:mononoki;letter-spacing:0px;word-spacing:0px;fill:#cccccc;stroke-width:0.219382"
       xml:space="preserve"><tspan
         id="tspan1687"
         style="font-style:italic;font-variant:normal;font-weight:bold;font-stretch:normal;font-size:8.77526px;font-family:mononoki;-inkscape-font-specification:'mononoki Bold Italic';fill:#cccccc;stroke-width:0.219382"
         y="91.777534"
         x="129.03984"
         sodipodi:role="line">A fresh, competitive-oriented, multi-purpose</tspan><tspan
         id="tspan1691"
         style="font-style:italic;font-variant:normal;font-weight:bold;font-stretch:normal;font-size:8.77526px;font-family:mononoki;-inkscape-font-specification:'mononoki Bold Italic';fill:#cccccc;stroke-width:0.219382"
         y="102.78963"
         x="129.03984"
         sodipodi:role="line">Discord bot for Splatoon 2!</tspan></text>
    <rect
       style="opacity:0.998;fill:#ffffff;stroke:#fffffc;stroke-width:11.0006;stroke-linecap:round;stroke-linejoin:round;stroke-miterlimit:4;stroke-dasharray:none;stroke-opacity:1;paint-order:stroke markers fill"
       id="rect56"
       width="41.356319"
       height="9.1540432"
       x="285.88559"
       y="68.428246" />
    <text
       xml:space="preserve"
       style="font-style:normal;font-variant:normal;font-weight:normal;font-stretch:normal;font-size:13.6637px;line-height:1.25;font-family:'mononoki Nerd Font';-inkscape-font-specification:'mononoki Nerd Font';letter-spacing:0px;word-spacing:0px;stroke-width:0;stroke-miterlimit:4;stroke-dasharray:none"
       x="287.58267"
       y="78.135826"
       id="text1253"><tspan
         sodipodi:role="line"
         id="tspan1251"
         x="287.58267"
         y="78.135826"
         style="font-style:normal;font-variant:normal;font-weight:bold;font-stretch:normal;font-family:'mononoki Nerd Font';-inkscape-font-specification:'mononoki Nerd Font Bold';fill:#ff0000;stroke:#fffffc;stroke-width:0;stroke-miterlimit:4;stroke-dasharray:none;stroke-opacity:1">Mk. 2</tspan></text>
  </g>
</svg>
